(kicad_pcb (version 20171130) (host pcbnew 5.1.4)

  (general
    (thickness 1.6)
    (drawings 5)
    (tracks 59)
    (zones 0)
    (modules 15)
    (nets 8)
  )

  (page USLetter)
  (title_block
    (title "Sensor Board 1")
    (company "Project Springtime")
    (comment 1 www.project-springtime.org)
  )

  (layers
    (0 F.Cu signal)
    (31 B.Cu signal)
    (32 B.Adhes user)
    (33 F.Adhes user)
    (34 B.Paste user hide)
    (35 F.Paste user)
    (36 B.SilkS user)
    (37 F.SilkS user)
    (38 B.Mask user)
    (39 F.Mask user)
    (40 Dwgs.User user)
    (41 Cmts.User user)
    (42 Eco1.User user)
    (43 Eco2.User user)
    (44 Edge.Cuts user)
    (45 Margin user)
    (46 B.CrtYd user)
    (47 F.CrtYd user hide)
    (48 B.Fab user)
    (49 F.Fab user hide)
  )

  (setup
    (last_trace_width 1)
    (trace_clearance 0.5)
    (zone_clearance 0.508)
    (zone_45_only no)
    (trace_min 0.2)
    (via_size 1)
    (via_drill 0.4)
    (via_min_size 0.4)
    (via_min_drill 0.3)
    (uvia_size 0.3)
    (uvia_drill 0.1)
    (uvias_allowed no)
    (uvia_min_size 0.2)
    (uvia_min_drill 0.1)
    (edge_width 0.05)
    (segment_width 0.2)
    (pcb_text_width 0.3)
    (pcb_text_size 1.5 1.5)
    (mod_edge_width 0.12)
    (mod_text_size 1 1)
    (mod_text_width 0.15)
    (pad_size 1.524 1.524)
    (pad_drill 0.762)
    (pad_to_mask_clearance 0.051)
    (solder_mask_min_width 0.25)
    (aux_axis_origin 0 0)
    (visible_elements FFFFFF7F)
    (pcbplotparams
      (layerselection 0x010fc_ffffffff)
      (usegerberextensions false)
      (usegerberattributes false)
      (usegerberadvancedattributes false)
      (creategerberjobfile false)
      (excludeedgelayer true)
      (linewidth 0.100000)
      (plotframeref false)
      (viasonmask false)
      (mode 1)
      (useauxorigin false)
      (hpglpennumber 1)
      (hpglpenspeed 20)
      (hpglpendiameter 15.000000)
      (psnegative false)
      (psa4output false)
      (plotreference true)
      (plotvalue true)
      (plotinvisibletext false)
      (padsonsilk false)
      (subtractmaskfromsilk false)
      (outputformat 1)
      (mirror false)
      (drillshape 0)
      (scaleselection 1)
      (outputdirectory "gerber/"))
  )

  (net 0 "")
  (net 1 "Net-(C1-Pad1)")
  (net 2 GND)
  (net 3 VCC)
  (net 4 "Net-(J2-Pad1)")
  (net 5 "Net-(J3-Pad2)")
  (net 6 "Net-(J4-Pad2)")
  (net 7 "Net-(J5-Pad1)")

  (net_class Default "This is the default net class."
    (clearance 0.5)
    (trace_width 1)
    (via_dia 1)
    (via_drill 0.4)
    (uvia_dia 0.3)
    (uvia_drill 0.1)
    (add_net GND)
    (add_net "Net-(C1-Pad1)")
    (add_net "Net-(J2-Pad1)")
    (add_net "Net-(J3-Pad2)")
    (add_net "Net-(J4-Pad2)")
    (add_net "Net-(J5-Pad1)")
    (add_net VCC)
  )

  (module Connector_PinHeader_2.54mm:PinHeader_1x02_P2.54mm_Vertical (layer F.Cu) (tedit 59FED5CC) (tstamp 5D99B334)
    (at 162.56 76.2)
    (descr "Through hole straight pin header, 1x02, 2.54mm pitch, single row")
    (tags "Through hole pin header THT 1x02 2.54mm single row")
    (path /5D9C9D13)
    (fp_text reference J4 (at 0 -2.33) (layer F.SilkS)
      (effects (font (size 1 1) (thickness 0.15)))
    )
    (fp_text value Conn_01x02_Male (at 0 4.87) (layer F.Fab)
      (effects (font (size 1 1) (thickness 0.15)))
    )
    (fp_text user %R (at 0 1.27 90) (layer F.Fab)
      (effects (font (size 1 1) (thickness 0.15)))
    )
    (fp_line (start 1.8 -1.8) (end -1.8 -1.8) (layer F.CrtYd) (width 0.05))
    (fp_line (start 1.8 4.35) (end 1.8 -1.8) (layer F.CrtYd) (width 0.05))
    (fp_line (start -1.8 4.35) (end 1.8 4.35) (layer F.CrtYd) (width 0.05))
    (fp_line (start -1.8 -1.8) (end -1.8 4.35) (layer F.CrtYd) (width 0.05))
    (fp_line (start -1.33 -1.33) (end 0 -1.33) (layer F.SilkS) (width 0.12))
    (fp_line (start -1.33 0) (end -1.33 -1.33) (layer F.SilkS) (width 0.12))
    (fp_line (start -1.33 1.27) (end 1.33 1.27) (layer F.SilkS) (width 0.12))
    (fp_line (start 1.33 1.27) (end 1.33 3.87) (layer F.SilkS) (width 0.12))
    (fp_line (start -1.33 1.27) (end -1.33 3.87) (layer F.SilkS) (width 0.12))
    (fp_line (start -1.33 3.87) (end 1.33 3.87) (layer F.SilkS) (width 0.12))
    (fp_line (start -1.27 -0.635) (end -0.635 -1.27) (layer F.Fab) (width 0.1))
    (fp_line (start -1.27 3.81) (end -1.27 -0.635) (layer F.Fab) (width 0.1))
    (fp_line (start 1.27 3.81) (end -1.27 3.81) (layer F.Fab) (width 0.1))
    (fp_line (start 1.27 -1.27) (end 1.27 3.81) (layer F.Fab) (width 0.1))
    (fp_line (start -0.635 -1.27) (end 1.27 -1.27) (layer F.Fab) (width 0.1))
    (pad 2 thru_hole oval (at 0 2.54) (size 1.7 1.7) (drill 1) (layers *.Cu *.Mask)
      (net 6 "Net-(J4-Pad2)"))
    (pad 1 thru_hole rect (at 0 0) (size 1.7 1.7) (drill 1) (layers *.Cu *.Mask)
      (net 1 "Net-(C1-Pad1)"))
    (model ${KISYS3DMOD}/Connector_PinHeader_2.54mm.3dshapes/PinHeader_1x02_P2.54mm_Vertical.wrl
      (at (xyz 0 0 0))
      (scale (xyz 1 1 1))
      (rotate (xyz 0 0 0))
    )
  )

  (module MountingHole:MountingHole_3.2mm_M3 (layer F.Cu) (tedit 56D1B4CB) (tstamp 5D99BD76)
    (at 161.29 93.98)
    (descr "Mounting Hole 3.2mm, no annular, M3")
    (tags "mounting hole 3.2mm no annular m3")
    (attr virtual)
    (fp_text reference REF** (at 0 -4.2) (layer F.SilkS)
      (effects (font (size 1 1) (thickness 0.15)))
    )
    (fp_text value MountingHole_3.2mm_M3 (at 0 4.2) (layer F.Fab)
      (effects (font (size 1 1) (thickness 0.15)))
    )
    (fp_circle (center 0 0) (end 3.45 0) (layer F.CrtYd) (width 0.05))
    (fp_circle (center 0 0) (end 3.2 0) (layer Cmts.User) (width 0.15))
    (fp_text user %R (at 0.3 0) (layer F.Fab)
      (effects (font (size 1 1) (thickness 0.15)))
    )
    (pad 1 np_thru_hole circle (at 0 0) (size 3.2 3.2) (drill 3.2) (layers *.Cu *.Mask))
  )

  (module MountingHole:MountingHole_3.2mm_M3 (layer F.Cu) (tedit 56D1B4CB) (tstamp 5D99BD13)
    (at 186.69 93.98)
    (descr "Mounting Hole 3.2mm, no annular, M3")
    (tags "mounting hole 3.2mm no annular m3")
    (attr virtual)
    (fp_text reference REF** (at 0 -4.2) (layer F.SilkS)
      (effects (font (size 1 1) (thickness 0.15)))
    )
    (fp_text value MountingHole_3.2mm_M3 (at 0 4.2) (layer F.Fab)
      (effects (font (size 1 1) (thickness 0.15)))
    )
    (fp_circle (center 0 0) (end 3.45 0) (layer F.CrtYd) (width 0.05))
    (fp_circle (center 0 0) (end 3.2 0) (layer Cmts.User) (width 0.15))
    (fp_text user %R (at 0.3 0) (layer F.Fab)
      (effects (font (size 1 1) (thickness 0.15)))
    )
    (pad 1 np_thru_hole circle (at 0 0) (size 3.2 3.2) (drill 3.2) (layers *.Cu *.Mask))
  )

  (module Capacitor_THT:CP_Radial_Tantal_D9.0mm_P2.50mm (layer F.Cu) (tedit 5AE50EF0) (tstamp 5D99A392)
    (at 187.96 104.14 270)
    (descr "CP, Radial_Tantal series, Radial, pin pitch=2.50mm, , diameter=9.0mm, Tantal Electrolytic Capacitor, http://cdn-reichelt.de/documents/datenblatt/B300/TANTAL-TB-Serie%23.pdf")
    (tags "CP Radial_Tantal series Radial pin pitch 2.50mm  diameter 9.0mm Tantal Electrolytic Capacitor")
    (path /5D9C4614)
    (fp_text reference C1 (at 1.25 -5.75 90) (layer F.SilkS)
      (effects (font (size 1 1) (thickness 0.15)))
    )
    (fp_text value C (at 1.25 5.75 90) (layer F.Fab)
      (effects (font (size 1 1) (thickness 0.15)))
    )
    (fp_circle (center 1.25 0) (end 5.75 0) (layer F.Fab) (width 0.1))
    (fp_circle (center 1.25 0) (end 5.87 0) (layer F.SilkS) (width 0.12))
    (fp_circle (center 1.25 0) (end 6 0) (layer F.CrtYd) (width 0.05))
    (fp_line (start -2.60781 -1.9675) (end -1.70781 -1.9675) (layer F.Fab) (width 0.1))
    (fp_line (start -2.15781 -2.4175) (end -2.15781 -1.5175) (layer F.Fab) (width 0.1))
    (fp_line (start -3.694672 -2.595) (end -2.794672 -2.595) (layer F.SilkS) (width 0.12))
    (fp_line (start -3.244672 -3.045) (end -3.244672 -2.145) (layer F.SilkS) (width 0.12))
    (fp_text user %R (at 1.25 0 90) (layer F.Fab)
      (effects (font (size 1 1) (thickness 0.15)))
    )
    (pad 1 thru_hole rect (at 0 0 270) (size 1.6 1.6) (drill 0.8) (layers *.Cu *.Mask)
      (net 1 "Net-(C1-Pad1)"))
    (pad 2 thru_hole circle (at 2.5 0 270) (size 1.6 1.6) (drill 0.8) (layers *.Cu *.Mask)
      (net 2 GND))
    (model ${KISYS3DMOD}/Capacitor_THT.3dshapes/CP_Radial_Tantal_D9.0mm_P2.50mm.wrl
      (at (xyz 0 0 0))
      (scale (xyz 1 1 1))
      (rotate (xyz 0 0 0))
    )
  )

  (module Resistor_THT:R_Axial_DIN0411_L9.9mm_D3.6mm_P15.24mm_Horizontal (layer F.Cu) (tedit 5AE5139B) (tstamp 5D99A3EB)
    (at 167.64 91.44 90)
    (descr "Resistor, Axial_DIN0411 series, Axial, Horizontal, pin pitch=15.24mm, 1W, length*diameter=9.9*3.6mm^2")
    (tags "Resistor Axial_DIN0411 series Axial Horizontal pin pitch 15.24mm 1W length 9.9mm diameter 3.6mm")
    (path /5D9BC880)
    (fp_text reference R1 (at 7.62 -2.92 90) (layer F.SilkS)
      (effects (font (size 1 1) (thickness 0.15)))
    )
    (fp_text value R (at 7.62 2.92 90) (layer F.Fab)
      (effects (font (size 1 1) (thickness 0.15)))
    )
    (fp_line (start 2.67 -1.8) (end 2.67 1.8) (layer F.Fab) (width 0.1))
    (fp_line (start 2.67 1.8) (end 12.57 1.8) (layer F.Fab) (width 0.1))
    (fp_line (start 12.57 1.8) (end 12.57 -1.8) (layer F.Fab) (width 0.1))
    (fp_line (start 12.57 -1.8) (end 2.67 -1.8) (layer F.Fab) (width 0.1))
    (fp_line (start 0 0) (end 2.67 0) (layer F.Fab) (width 0.1))
    (fp_line (start 15.24 0) (end 12.57 0) (layer F.Fab) (width 0.1))
    (fp_line (start 2.55 -1.92) (end 2.55 1.92) (layer F.SilkS) (width 0.12))
    (fp_line (start 2.55 1.92) (end 12.69 1.92) (layer F.SilkS) (width 0.12))
    (fp_line (start 12.69 1.92) (end 12.69 -1.92) (layer F.SilkS) (width 0.12))
    (fp_line (start 12.69 -1.92) (end 2.55 -1.92) (layer F.SilkS) (width 0.12))
    (fp_line (start 1.44 0) (end 2.55 0) (layer F.SilkS) (width 0.12))
    (fp_line (start 13.8 0) (end 12.69 0) (layer F.SilkS) (width 0.12))
    (fp_line (start -1.45 -2.05) (end -1.45 2.05) (layer F.CrtYd) (width 0.05))
    (fp_line (start -1.45 2.05) (end 16.69 2.05) (layer F.CrtYd) (width 0.05))
    (fp_line (start 16.69 2.05) (end 16.69 -2.05) (layer F.CrtYd) (width 0.05))
    (fp_line (start 16.69 -2.05) (end -1.45 -2.05) (layer F.CrtYd) (width 0.05))
    (fp_text user %R (at 7.62 0 90) (layer F.Fab)
      (effects (font (size 1 1) (thickness 0.15)))
    )
    (pad 1 thru_hole circle (at 0 0 90) (size 2.4 2.4) (drill 1.2) (layers *.Cu *.Mask)
      (net 5 "Net-(J3-Pad2)"))
    (pad 2 thru_hole oval (at 15.24 0 90) (size 2.4 2.4) (drill 1.2) (layers *.Cu *.Mask)
      (net 1 "Net-(C1-Pad1)"))
    (model ${KISYS3DMOD}/Resistor_THT.3dshapes/R_Axial_DIN0411_L9.9mm_D3.6mm_P15.24mm_Horizontal.wrl
      (at (xyz 0 0 0))
      (scale (xyz 1 1 1))
      (rotate (xyz 0 0 0))
    )
  )

  (module Resistor_THT:R_Axial_DIN0411_L9.9mm_D3.6mm_P15.24mm_Horizontal (layer F.Cu) (tedit 5AE5139B) (tstamp 5D99A402)
    (at 167.64 96.52 270)
    (descr "Resistor, Axial_DIN0411 series, Axial, Horizontal, pin pitch=15.24mm, 1W, length*diameter=9.9*3.6mm^2")
    (tags "Resistor Axial_DIN0411 series Axial Horizontal pin pitch 15.24mm 1W length 9.9mm diameter 3.6mm")
    (path /5D9BD586)
    (fp_text reference R2 (at 7.62 -2.92 90) (layer F.SilkS)
      (effects (font (size 1 1) (thickness 0.15)))
    )
    (fp_text value R (at 7.62 2.92 90) (layer F.Fab)
      (effects (font (size 1 1) (thickness 0.15)))
    )
    (fp_text user %R (at 7.62 0 90) (layer F.Fab)
      (effects (font (size 1 1) (thickness 0.15)))
    )
    (fp_line (start 16.69 -2.05) (end -1.45 -2.05) (layer F.CrtYd) (width 0.05))
    (fp_line (start 16.69 2.05) (end 16.69 -2.05) (layer F.CrtYd) (width 0.05))
    (fp_line (start -1.45 2.05) (end 16.69 2.05) (layer F.CrtYd) (width 0.05))
    (fp_line (start -1.45 -2.05) (end -1.45 2.05) (layer F.CrtYd) (width 0.05))
    (fp_line (start 13.8 0) (end 12.69 0) (layer F.SilkS) (width 0.12))
    (fp_line (start 1.44 0) (end 2.55 0) (layer F.SilkS) (width 0.12))
    (fp_line (start 12.69 -1.92) (end 2.55 -1.92) (layer F.SilkS) (width 0.12))
    (fp_line (start 12.69 1.92) (end 12.69 -1.92) (layer F.SilkS) (width 0.12))
    (fp_line (start 2.55 1.92) (end 12.69 1.92) (layer F.SilkS) (width 0.12))
    (fp_line (start 2.55 -1.92) (end 2.55 1.92) (layer F.SilkS) (width 0.12))
    (fp_line (start 15.24 0) (end 12.57 0) (layer F.Fab) (width 0.1))
    (fp_line (start 0 0) (end 2.67 0) (layer F.Fab) (width 0.1))
    (fp_line (start 12.57 -1.8) (end 2.67 -1.8) (layer F.Fab) (width 0.1))
    (fp_line (start 12.57 1.8) (end 12.57 -1.8) (layer F.Fab) (width 0.1))
    (fp_line (start 2.67 1.8) (end 12.57 1.8) (layer F.Fab) (width 0.1))
    (fp_line (start 2.67 -1.8) (end 2.67 1.8) (layer F.Fab) (width 0.1))
    (pad 2 thru_hole oval (at 15.24 0 270) (size 2.4 2.4) (drill 1.2) (layers *.Cu *.Mask)
      (net 4 "Net-(J2-Pad1)"))
    (pad 1 thru_hole circle (at 0 0 270) (size 2.4 2.4) (drill 1.2) (layers *.Cu *.Mask)
      (net 1 "Net-(C1-Pad1)"))
    (model ${KISYS3DMOD}/Resistor_THT.3dshapes/R_Axial_DIN0411_L9.9mm_D3.6mm_P15.24mm_Horizontal.wrl
      (at (xyz 0 0 0))
      (scale (xyz 1 1 1))
      (rotate (xyz 0 0 0))
    )
  )

  (module Resistor_THT:R_Axial_DIN0411_L9.9mm_D3.6mm_P15.24mm_Horizontal (layer F.Cu) (tedit 5AE5139B) (tstamp 5D99A732)
    (at 173.99 76.2 270)
    (descr "Resistor, Axial_DIN0411 series, Axial, Horizontal, pin pitch=15.24mm, 1W, length*diameter=9.9*3.6mm^2")
    (tags "Resistor Axial_DIN0411 series Axial Horizontal pin pitch 15.24mm 1W length 9.9mm diameter 3.6mm")
    (path /5D9BD0B2)
    (fp_text reference R3 (at 7.62 -2.92 90) (layer F.SilkS)
      (effects (font (size 1 1) (thickness 0.15)))
    )
    (fp_text value R (at 7.62 2.92 90) (layer F.Fab)
      (effects (font (size 1 1) (thickness 0.15)))
    )
    (fp_text user %R (at 7.62 0 90) (layer F.Fab)
      (effects (font (size 1 1) (thickness 0.15)))
    )
    (fp_line (start 16.69 -2.05) (end -1.45 -2.05) (layer F.CrtYd) (width 0.05))
    (fp_line (start 16.69 2.05) (end 16.69 -2.05) (layer F.CrtYd) (width 0.05))
    (fp_line (start -1.45 2.05) (end 16.69 2.05) (layer F.CrtYd) (width 0.05))
    (fp_line (start -1.45 -2.05) (end -1.45 2.05) (layer F.CrtYd) (width 0.05))
    (fp_line (start 13.8 0) (end 12.69 0) (layer F.SilkS) (width 0.12))
    (fp_line (start 1.44 0) (end 2.55 0) (layer F.SilkS) (width 0.12))
    (fp_line (start 12.69 -1.92) (end 2.55 -1.92) (layer F.SilkS) (width 0.12))
    (fp_line (start 12.69 1.92) (end 12.69 -1.92) (layer F.SilkS) (width 0.12))
    (fp_line (start 2.55 1.92) (end 12.69 1.92) (layer F.SilkS) (width 0.12))
    (fp_line (start 2.55 -1.92) (end 2.55 1.92) (layer F.SilkS) (width 0.12))
    (fp_line (start 15.24 0) (end 12.57 0) (layer F.Fab) (width 0.1))
    (fp_line (start 0 0) (end 2.67 0) (layer F.Fab) (width 0.1))
    (fp_line (start 12.57 -1.8) (end 2.67 -1.8) (layer F.Fab) (width 0.1))
    (fp_line (start 12.57 1.8) (end 12.57 -1.8) (layer F.Fab) (width 0.1))
    (fp_line (start 2.67 1.8) (end 12.57 1.8) (layer F.Fab) (width 0.1))
    (fp_line (start 2.67 -1.8) (end 2.67 1.8) (layer F.Fab) (width 0.1))
    (pad 2 thru_hole oval (at 15.24 0 270) (size 2.4 2.4) (drill 1.2) (layers *.Cu *.Mask)
      (net 7 "Net-(J5-Pad1)"))
    (pad 1 thru_hole circle (at 0 0 270) (size 2.4 2.4) (drill 1.2) (layers *.Cu *.Mask)
      (net 3 VCC))
    (model ${KISYS3DMOD}/Resistor_THT.3dshapes/R_Axial_DIN0411_L9.9mm_D3.6mm_P15.24mm_Horizontal.wrl
      (at (xyz 0 0 0))
      (scale (xyz 1 1 1))
      (rotate (xyz 0 0 0))
    )
  )

  (module Resistor_THT:R_Axial_DIN0411_L9.9mm_D3.6mm_P15.24mm_Horizontal (layer F.Cu) (tedit 5AE5139B) (tstamp 5D99A8A9)
    (at 173.99 96.52 270)
    (descr "Resistor, Axial_DIN0411 series, Axial, Horizontal, pin pitch=15.24mm, 1W, length*diameter=9.9*3.6mm^2")
    (tags "Resistor Axial_DIN0411 series Axial Horizontal pin pitch 15.24mm 1W length 9.9mm diameter 3.6mm")
    (path /5D9BD854)
    (fp_text reference R4 (at 7.62 -2.92 90) (layer F.SilkS)
      (effects (font (size 1 1) (thickness 0.15)))
    )
    (fp_text value R (at 7.62 2.92 90) (layer F.Fab)
      (effects (font (size 1 1) (thickness 0.15)))
    )
    (fp_text user %R (at 7.62 0 90) (layer F.Fab)
      (effects (font (size 1 1) (thickness 0.15)))
    )
    (fp_line (start 16.69 -2.05) (end -1.45 -2.05) (layer F.CrtYd) (width 0.05))
    (fp_line (start 16.69 2.05) (end 16.69 -2.05) (layer F.CrtYd) (width 0.05))
    (fp_line (start -1.45 2.05) (end 16.69 2.05) (layer F.CrtYd) (width 0.05))
    (fp_line (start -1.45 -2.05) (end -1.45 2.05) (layer F.CrtYd) (width 0.05))
    (fp_line (start 13.8 0) (end 12.69 0) (layer F.SilkS) (width 0.12))
    (fp_line (start 1.44 0) (end 2.55 0) (layer F.SilkS) (width 0.12))
    (fp_line (start 12.69 -1.92) (end 2.55 -1.92) (layer F.SilkS) (width 0.12))
    (fp_line (start 12.69 1.92) (end 12.69 -1.92) (layer F.SilkS) (width 0.12))
    (fp_line (start 2.55 1.92) (end 12.69 1.92) (layer F.SilkS) (width 0.12))
    (fp_line (start 2.55 -1.92) (end 2.55 1.92) (layer F.SilkS) (width 0.12))
    (fp_line (start 15.24 0) (end 12.57 0) (layer F.Fab) (width 0.1))
    (fp_line (start 0 0) (end 2.67 0) (layer F.Fab) (width 0.1))
    (fp_line (start 12.57 -1.8) (end 2.67 -1.8) (layer F.Fab) (width 0.1))
    (fp_line (start 12.57 1.8) (end 12.57 -1.8) (layer F.Fab) (width 0.1))
    (fp_line (start 2.67 1.8) (end 12.57 1.8) (layer F.Fab) (width 0.1))
    (fp_line (start 2.67 -1.8) (end 2.67 1.8) (layer F.Fab) (width 0.1))
    (pad 2 thru_hole oval (at 15.24 0 270) (size 2.4 2.4) (drill 1.2) (layers *.Cu *.Mask)
      (net 2 GND))
    (pad 1 thru_hole circle (at 0 0 270) (size 2.4 2.4) (drill 1.2) (layers *.Cu *.Mask)
      (net 6 "Net-(J4-Pad2)"))
    (model ${KISYS3DMOD}/Resistor_THT.3dshapes/R_Axial_DIN0411_L9.9mm_D3.6mm_P15.24mm_Horizontal.wrl
      (at (xyz 0 0 0))
      (scale (xyz 1 1 1))
      (rotate (xyz 0 0 0))
    )
  )

  (module Resistor_THT:R_Axial_DIN0411_L9.9mm_D3.6mm_P15.24mm_Horizontal (layer F.Cu) (tedit 5AE5139B) (tstamp 5D99B53B)
    (at 180.34 76.2 270)
    (descr "Resistor, Axial_DIN0411 series, Axial, Horizontal, pin pitch=15.24mm, 1W, length*diameter=9.9*3.6mm^2")
    (tags "Resistor Axial_DIN0411 series Axial Horizontal pin pitch 15.24mm 1W length 9.9mm diameter 3.6mm")
    (path /5D9BD2FB)
    (fp_text reference R5 (at 7.62 -2.92 90) (layer F.SilkS)
      (effects (font (size 1 1) (thickness 0.15)))
    )
    (fp_text value R (at 7.62 2.92 90) (layer F.Fab)
      (effects (font (size 1 1) (thickness 0.15)))
    )
    (fp_line (start 2.67 -1.8) (end 2.67 1.8) (layer F.Fab) (width 0.1))
    (fp_line (start 2.67 1.8) (end 12.57 1.8) (layer F.Fab) (width 0.1))
    (fp_line (start 12.57 1.8) (end 12.57 -1.8) (layer F.Fab) (width 0.1))
    (fp_line (start 12.57 -1.8) (end 2.67 -1.8) (layer F.Fab) (width 0.1))
    (fp_line (start 0 0) (end 2.67 0) (layer F.Fab) (width 0.1))
    (fp_line (start 15.24 0) (end 12.57 0) (layer F.Fab) (width 0.1))
    (fp_line (start 2.55 -1.92) (end 2.55 1.92) (layer F.SilkS) (width 0.12))
    (fp_line (start 2.55 1.92) (end 12.69 1.92) (layer F.SilkS) (width 0.12))
    (fp_line (start 12.69 1.92) (end 12.69 -1.92) (layer F.SilkS) (width 0.12))
    (fp_line (start 12.69 -1.92) (end 2.55 -1.92) (layer F.SilkS) (width 0.12))
    (fp_line (start 1.44 0) (end 2.55 0) (layer F.SilkS) (width 0.12))
    (fp_line (start 13.8 0) (end 12.69 0) (layer F.SilkS) (width 0.12))
    (fp_line (start -1.45 -2.05) (end -1.45 2.05) (layer F.CrtYd) (width 0.05))
    (fp_line (start -1.45 2.05) (end 16.69 2.05) (layer F.CrtYd) (width 0.05))
    (fp_line (start 16.69 2.05) (end 16.69 -2.05) (layer F.CrtYd) (width 0.05))
    (fp_line (start 16.69 -2.05) (end -1.45 -2.05) (layer F.CrtYd) (width 0.05))
    (fp_text user %R (at 7.62 0 90) (layer F.Fab)
      (effects (font (size 1 1) (thickness 0.15)))
    )
    (pad 1 thru_hole circle (at 0 0 270) (size 2.4 2.4) (drill 1.2) (layers *.Cu *.Mask)
      (net 3 VCC))
    (pad 2 thru_hole oval (at 15.24 0 270) (size 2.4 2.4) (drill 1.2) (layers *.Cu *.Mask)
      (net 1 "Net-(C1-Pad1)"))
    (model ${KISYS3DMOD}/Resistor_THT.3dshapes/R_Axial_DIN0411_L9.9mm_D3.6mm_P15.24mm_Horizontal.wrl
      (at (xyz 0 0 0))
      (scale (xyz 1 1 1))
      (rotate (xyz 0 0 0))
    )
  )

  (module Resistor_THT:R_Axial_DIN0411_L9.9mm_D3.6mm_P15.24mm_Horizontal (layer F.Cu) (tedit 5AE5139B) (tstamp 5D99A45E)
    (at 180.34 96.52 270)
    (descr "Resistor, Axial_DIN0411 series, Axial, Horizontal, pin pitch=15.24mm, 1W, length*diameter=9.9*3.6mm^2")
    (tags "Resistor Axial_DIN0411 series Axial Horizontal pin pitch 15.24mm 1W length 9.9mm diameter 3.6mm")
    (path /5D9BDCB9)
    (fp_text reference R6 (at 7.62 -2.92 90) (layer F.SilkS)
      (effects (font (size 1 1) (thickness 0.15)))
    )
    (fp_text value R (at 7.62 2.92 90) (layer F.Fab)
      (effects (font (size 1 1) (thickness 0.15)))
    )
    (fp_line (start 2.67 -1.8) (end 2.67 1.8) (layer F.Fab) (width 0.1))
    (fp_line (start 2.67 1.8) (end 12.57 1.8) (layer F.Fab) (width 0.1))
    (fp_line (start 12.57 1.8) (end 12.57 -1.8) (layer F.Fab) (width 0.1))
    (fp_line (start 12.57 -1.8) (end 2.67 -1.8) (layer F.Fab) (width 0.1))
    (fp_line (start 0 0) (end 2.67 0) (layer F.Fab) (width 0.1))
    (fp_line (start 15.24 0) (end 12.57 0) (layer F.Fab) (width 0.1))
    (fp_line (start 2.55 -1.92) (end 2.55 1.92) (layer F.SilkS) (width 0.12))
    (fp_line (start 2.55 1.92) (end 12.69 1.92) (layer F.SilkS) (width 0.12))
    (fp_line (start 12.69 1.92) (end 12.69 -1.92) (layer F.SilkS) (width 0.12))
    (fp_line (start 12.69 -1.92) (end 2.55 -1.92) (layer F.SilkS) (width 0.12))
    (fp_line (start 1.44 0) (end 2.55 0) (layer F.SilkS) (width 0.12))
    (fp_line (start 13.8 0) (end 12.69 0) (layer F.SilkS) (width 0.12))
    (fp_line (start -1.45 -2.05) (end -1.45 2.05) (layer F.CrtYd) (width 0.05))
    (fp_line (start -1.45 2.05) (end 16.69 2.05) (layer F.CrtYd) (width 0.05))
    (fp_line (start 16.69 2.05) (end 16.69 -2.05) (layer F.CrtYd) (width 0.05))
    (fp_line (start 16.69 -2.05) (end -1.45 -2.05) (layer F.CrtYd) (width 0.05))
    (fp_text user %R (at 7.62 0 90) (layer F.Fab)
      (effects (font (size 1 1) (thickness 0.15)))
    )
    (pad 1 thru_hole circle (at 0 0 270) (size 2.4 2.4) (drill 1.2) (layers *.Cu *.Mask)
      (net 1 "Net-(C1-Pad1)"))
    (pad 2 thru_hole oval (at 15.24 0 270) (size 2.4 2.4) (drill 1.2) (layers *.Cu *.Mask)
      (net 2 GND))
    (model ${KISYS3DMOD}/Resistor_THT.3dshapes/R_Axial_DIN0411_L9.9mm_D3.6mm_P15.24mm_Horizontal.wrl
      (at (xyz 0 0 0))
      (scale (xyz 1 1 1))
      (rotate (xyz 0 0 0))
    )
  )

  (module Connector_PinHeader_2.54mm:PinHeader_1x02_P2.54mm_Vertical (layer F.Cu) (tedit 59FED5CC) (tstamp 5D99B2F5)
    (at 189.23 76.2)
    (descr "Through hole straight pin header, 1x02, 2.54mm pitch, single row")
    (tags "Through hole pin header THT 1x02 2.54mm single row")
    (path /5D9FE7C6)
    (fp_text reference J1 (at 0 -2.33) (layer F.SilkS)
      (effects (font (size 1 1) (thickness 0.15)))
    )
    (fp_text value Conn_01x02_Male (at 0 4.87) (layer F.Fab)
      (effects (font (size 1 1) (thickness 0.15)))
    )
    (fp_line (start -0.635 -1.27) (end 1.27 -1.27) (layer F.Fab) (width 0.1))
    (fp_line (start 1.27 -1.27) (end 1.27 3.81) (layer F.Fab) (width 0.1))
    (fp_line (start 1.27 3.81) (end -1.27 3.81) (layer F.Fab) (width 0.1))
    (fp_line (start -1.27 3.81) (end -1.27 -0.635) (layer F.Fab) (width 0.1))
    (fp_line (start -1.27 -0.635) (end -0.635 -1.27) (layer F.Fab) (width 0.1))
    (fp_line (start -1.33 3.87) (end 1.33 3.87) (layer F.SilkS) (width 0.12))
    (fp_line (start -1.33 1.27) (end -1.33 3.87) (layer F.SilkS) (width 0.12))
    (fp_line (start 1.33 1.27) (end 1.33 3.87) (layer F.SilkS) (width 0.12))
    (fp_line (start -1.33 1.27) (end 1.33 1.27) (layer F.SilkS) (width 0.12))
    (fp_line (start -1.33 0) (end -1.33 -1.33) (layer F.SilkS) (width 0.12))
    (fp_line (start -1.33 -1.33) (end 0 -1.33) (layer F.SilkS) (width 0.12))
    (fp_line (start -1.8 -1.8) (end -1.8 4.35) (layer F.CrtYd) (width 0.05))
    (fp_line (start -1.8 4.35) (end 1.8 4.35) (layer F.CrtYd) (width 0.05))
    (fp_line (start 1.8 4.35) (end 1.8 -1.8) (layer F.CrtYd) (width 0.05))
    (fp_line (start 1.8 -1.8) (end -1.8 -1.8) (layer F.CrtYd) (width 0.05))
    (fp_text user %R (at 0 1.27 90) (layer F.Fab)
      (effects (font (size 1 1) (thickness 0.15)))
    )
    (pad 1 thru_hole rect (at 0 0) (size 1.7 1.7) (drill 1) (layers *.Cu *.Mask)
      (net 3 VCC))
    (pad 2 thru_hole oval (at 0 2.54) (size 1.7 1.7) (drill 1) (layers *.Cu *.Mask)
      (net 2 GND))
    (model ${KISYS3DMOD}/Connector_PinHeader_2.54mm.3dshapes/PinHeader_1x02_P2.54mm_Vertical.wrl
      (at (xyz 0 0 0))
      (scale (xyz 1 1 1))
      (rotate (xyz 0 0 0))
    )
  )

  (module Connector_PinHeader_2.54mm:PinHeader_1x02_P2.54mm_Vertical (layer F.Cu) (tedit 59FED5CC) (tstamp 5D99B30A)
    (at 162.56 109.22)
    (descr "Through hole straight pin header, 1x02, 2.54mm pitch, single row")
    (tags "Through hole pin header THT 1x02 2.54mm single row")
    (path /5D9C934A)
    (fp_text reference J2 (at 0 -2.33) (layer F.SilkS)
      (effects (font (size 1 1) (thickness 0.15)))
    )
    (fp_text value Conn_01x02_Male (at 0 4.87) (layer F.Fab)
      (effects (font (size 1 1) (thickness 0.15)))
    )
    (fp_text user %R (at 0 1.27 90) (layer F.Fab)
      (effects (font (size 1 1) (thickness 0.15)))
    )
    (fp_line (start 1.8 -1.8) (end -1.8 -1.8) (layer F.CrtYd) (width 0.05))
    (fp_line (start 1.8 4.35) (end 1.8 -1.8) (layer F.CrtYd) (width 0.05))
    (fp_line (start -1.8 4.35) (end 1.8 4.35) (layer F.CrtYd) (width 0.05))
    (fp_line (start -1.8 -1.8) (end -1.8 4.35) (layer F.CrtYd) (width 0.05))
    (fp_line (start -1.33 -1.33) (end 0 -1.33) (layer F.SilkS) (width 0.12))
    (fp_line (start -1.33 0) (end -1.33 -1.33) (layer F.SilkS) (width 0.12))
    (fp_line (start -1.33 1.27) (end 1.33 1.27) (layer F.SilkS) (width 0.12))
    (fp_line (start 1.33 1.27) (end 1.33 3.87) (layer F.SilkS) (width 0.12))
    (fp_line (start -1.33 1.27) (end -1.33 3.87) (layer F.SilkS) (width 0.12))
    (fp_line (start -1.33 3.87) (end 1.33 3.87) (layer F.SilkS) (width 0.12))
    (fp_line (start -1.27 -0.635) (end -0.635 -1.27) (layer F.Fab) (width 0.1))
    (fp_line (start -1.27 3.81) (end -1.27 -0.635) (layer F.Fab) (width 0.1))
    (fp_line (start 1.27 3.81) (end -1.27 3.81) (layer F.Fab) (width 0.1))
    (fp_line (start 1.27 -1.27) (end 1.27 3.81) (layer F.Fab) (width 0.1))
    (fp_line (start -0.635 -1.27) (end 1.27 -1.27) (layer F.Fab) (width 0.1))
    (pad 2 thru_hole oval (at 0 2.54) (size 1.7 1.7) (drill 1) (layers *.Cu *.Mask)
      (net 2 GND))
    (pad 1 thru_hole rect (at 0 0) (size 1.7 1.7) (drill 1) (layers *.Cu *.Mask)
      (net 4 "Net-(J2-Pad1)"))
    (model ${KISYS3DMOD}/Connector_PinHeader_2.54mm.3dshapes/PinHeader_1x02_P2.54mm_Vertical.wrl
      (at (xyz 0 0 0))
      (scale (xyz 1 1 1))
      (rotate (xyz 0 0 0))
    )
  )

  (module Connector_PinHeader_2.54mm:PinHeader_1x02_P2.54mm_Vertical (layer F.Cu) (tedit 59FED5CC) (tstamp 5D99B31F)
    (at 158.75 109.22)
    (descr "Through hole straight pin header, 1x02, 2.54mm pitch, single row")
    (tags "Through hole pin header THT 1x02 2.54mm single row")
    (path /5D9C7F22)
    (fp_text reference J3 (at 0 -2.33) (layer F.SilkS)
      (effects (font (size 1 1) (thickness 0.15)))
    )
    (fp_text value Conn_01x02_Male (at 0 4.87) (layer F.Fab)
      (effects (font (size 1 1) (thickness 0.15)))
    )
    (fp_line (start -0.635 -1.27) (end 1.27 -1.27) (layer F.Fab) (width 0.1))
    (fp_line (start 1.27 -1.27) (end 1.27 3.81) (layer F.Fab) (width 0.1))
    (fp_line (start 1.27 3.81) (end -1.27 3.81) (layer F.Fab) (width 0.1))
    (fp_line (start -1.27 3.81) (end -1.27 -0.635) (layer F.Fab) (width 0.1))
    (fp_line (start -1.27 -0.635) (end -0.635 -1.27) (layer F.Fab) (width 0.1))
    (fp_line (start -1.33 3.87) (end 1.33 3.87) (layer F.SilkS) (width 0.12))
    (fp_line (start -1.33 1.27) (end -1.33 3.87) (layer F.SilkS) (width 0.12))
    (fp_line (start 1.33 1.27) (end 1.33 3.87) (layer F.SilkS) (width 0.12))
    (fp_line (start -1.33 1.27) (end 1.33 1.27) (layer F.SilkS) (width 0.12))
    (fp_line (start -1.33 0) (end -1.33 -1.33) (layer F.SilkS) (width 0.12))
    (fp_line (start -1.33 -1.33) (end 0 -1.33) (layer F.SilkS) (width 0.12))
    (fp_line (start -1.8 -1.8) (end -1.8 4.35) (layer F.CrtYd) (width 0.05))
    (fp_line (start -1.8 4.35) (end 1.8 4.35) (layer F.CrtYd) (width 0.05))
    (fp_line (start 1.8 4.35) (end 1.8 -1.8) (layer F.CrtYd) (width 0.05))
    (fp_line (start 1.8 -1.8) (end -1.8 -1.8) (layer F.CrtYd) (width 0.05))
    (fp_text user %R (at 0 1.27 90) (layer F.Fab)
      (effects (font (size 1 1) (thickness 0.15)))
    )
    (pad 1 thru_hole rect (at 0 0) (size 1.7 1.7) (drill 1) (layers *.Cu *.Mask)
      (net 3 VCC))
    (pad 2 thru_hole oval (at 0 2.54) (size 1.7 1.7) (drill 1) (layers *.Cu *.Mask)
      (net 5 "Net-(J3-Pad2)"))
    (model ${KISYS3DMOD}/Connector_PinHeader_2.54mm.3dshapes/PinHeader_1x02_P2.54mm_Vertical.wrl
      (at (xyz 0 0 0))
      (scale (xyz 1 1 1))
      (rotate (xyz 0 0 0))
    )
  )

  (module Connector_PinHeader_2.54mm:PinHeader_1x02_P2.54mm_Vertical (layer F.Cu) (tedit 59FED5CC) (tstamp 5D99B6CB)
    (at 158.75 76.2)
    (descr "Through hole straight pin header, 1x02, 2.54mm pitch, single row")
    (tags "Through hole pin header THT 1x02 2.54mm single row")
    (path /5D9C988A)
    (fp_text reference J5 (at 0 -2.33) (layer F.SilkS)
      (effects (font (size 1 1) (thickness 0.15)))
    )
    (fp_text value Conn_01x02_Male (at 0 4.87) (layer F.Fab)
      (effects (font (size 1 1) (thickness 0.15)))
    )
    (fp_line (start -0.635 -1.27) (end 1.27 -1.27) (layer F.Fab) (width 0.1))
    (fp_line (start 1.27 -1.27) (end 1.27 3.81) (layer F.Fab) (width 0.1))
    (fp_line (start 1.27 3.81) (end -1.27 3.81) (layer F.Fab) (width 0.1))
    (fp_line (start -1.27 3.81) (end -1.27 -0.635) (layer F.Fab) (width 0.1))
    (fp_line (start -1.27 -0.635) (end -0.635 -1.27) (layer F.Fab) (width 0.1))
    (fp_line (start -1.33 3.87) (end 1.33 3.87) (layer F.SilkS) (width 0.12))
    (fp_line (start -1.33 1.27) (end -1.33 3.87) (layer F.SilkS) (width 0.12))
    (fp_line (start 1.33 1.27) (end 1.33 3.87) (layer F.SilkS) (width 0.12))
    (fp_line (start -1.33 1.27) (end 1.33 1.27) (layer F.SilkS) (width 0.12))
    (fp_line (start -1.33 0) (end -1.33 -1.33) (layer F.SilkS) (width 0.12))
    (fp_line (start -1.33 -1.33) (end 0 -1.33) (layer F.SilkS) (width 0.12))
    (fp_line (start -1.8 -1.8) (end -1.8 4.35) (layer F.CrtYd) (width 0.05))
    (fp_line (start -1.8 4.35) (end 1.8 4.35) (layer F.CrtYd) (width 0.05))
    (fp_line (start 1.8 4.35) (end 1.8 -1.8) (layer F.CrtYd) (width 0.05))
    (fp_line (start 1.8 -1.8) (end -1.8 -1.8) (layer F.CrtYd) (width 0.05))
    (fp_text user %R (at 0 2.54 90) (layer F.Fab)
      (effects (font (size 1 1) (thickness 0.15)))
    )
    (pad 1 thru_hole rect (at 0 0) (size 1.7 1.7) (drill 1) (layers *.Cu *.Mask)
      (net 7 "Net-(J5-Pad1)"))
    (pad 2 thru_hole oval (at 0 2.54) (size 1.7 1.7) (drill 1) (layers *.Cu *.Mask)
      (net 1 "Net-(C1-Pad1)"))
    (model ${KISYS3DMOD}/Connector_PinHeader_2.54mm.3dshapes/PinHeader_1x02_P2.54mm_Vertical.wrl
      (at (xyz 0 0 0))
      (scale (xyz 1 1 1))
      (rotate (xyz 0 0 0))
    )
  )

  (module Connector_PinHeader_2.54mm:PinHeader_1x02_P2.54mm_Vertical (layer F.Cu) (tedit 59FED5CC) (tstamp 5D99B434)
    (at 189.23 83.82)
    (descr "Through hole straight pin header, 1x02, 2.54mm pitch, single row")
    (tags "Through hole pin header THT 1x02 2.54mm single row")
    (path /5DA0149E)
    (fp_text reference J6 (at 0 -2.33) (layer F.SilkS)
      (effects (font (size 1 1) (thickness 0.15)))
    )
    (fp_text value Conn_01x02_Male (at 0 4.87) (layer F.Fab)
      (effects (font (size 1 1) (thickness 0.15)))
    )
    (fp_text user %R (at 0 1.27 90) (layer F.Fab)
      (effects (font (size 1 1) (thickness 0.15)))
    )
    (fp_line (start 1.8 -1.8) (end -1.8 -1.8) (layer F.CrtYd) (width 0.05))
    (fp_line (start 1.8 4.35) (end 1.8 -1.8) (layer F.CrtYd) (width 0.05))
    (fp_line (start -1.8 4.35) (end 1.8 4.35) (layer F.CrtYd) (width 0.05))
    (fp_line (start -1.8 -1.8) (end -1.8 4.35) (layer F.CrtYd) (width 0.05))
    (fp_line (start -1.33 -1.33) (end 0 -1.33) (layer F.SilkS) (width 0.12))
    (fp_line (start -1.33 0) (end -1.33 -1.33) (layer F.SilkS) (width 0.12))
    (fp_line (start -1.33 1.27) (end 1.33 1.27) (layer F.SilkS) (width 0.12))
    (fp_line (start 1.33 1.27) (end 1.33 3.87) (layer F.SilkS) (width 0.12))
    (fp_line (start -1.33 1.27) (end -1.33 3.87) (layer F.SilkS) (width 0.12))
    (fp_line (start -1.33 3.87) (end 1.33 3.87) (layer F.SilkS) (width 0.12))
    (fp_line (start -1.27 -0.635) (end -0.635 -1.27) (layer F.Fab) (width 0.1))
    (fp_line (start -1.27 3.81) (end -1.27 -0.635) (layer F.Fab) (width 0.1))
    (fp_line (start 1.27 3.81) (end -1.27 3.81) (layer F.Fab) (width 0.1))
    (fp_line (start 1.27 -1.27) (end 1.27 3.81) (layer F.Fab) (width 0.1))
    (fp_line (start -0.635 -1.27) (end 1.27 -1.27) (layer F.Fab) (width 0.1))
    (pad 2 thru_hole oval (at 0 2.54) (size 1.7 1.7) (drill 1) (layers *.Cu *.Mask)
      (net 2 GND))
    (pad 1 thru_hole rect (at 0 0) (size 1.7 1.7) (drill 1) (layers *.Cu *.Mask)
      (net 1 "Net-(C1-Pad1)"))
    (model ${KISYS3DMOD}/Connector_PinHeader_2.54mm.3dshapes/PinHeader_1x02_P2.54mm_Vertical.wrl
      (at (xyz 0 0 0))
      (scale (xyz 1 1 1))
      (rotate (xyz 0 0 0))
    )
  )

  (gr_line (start 191.77 114.3) (end 190.5 114.3) (layer Edge.Cuts) (width 0.05) (tstamp 5D99C046))
  (gr_line (start 191.77 73.66) (end 191.77 114.3) (layer Edge.Cuts) (width 0.05))
  (gr_line (start 156.21 73.66) (end 191.77 73.66) (layer Edge.Cuts) (width 0.05))
  (gr_line (start 156.21 114.3) (end 156.21 73.66) (layer Edge.Cuts) (width 0.05))
  (gr_line (start 190.5 114.3) (end 156.21 114.3) (layer Edge.Cuts) (width 0.05))

  (segment (start 180.34 96.52) (end 180.34 91.44) (width 1) (layer B.Cu) (net 1))
  (segment (start 168.839999 97.719999) (end 167.64 96.52) (width 1) (layer B.Cu) (net 1))
  (segment (start 171.45 100.33) (end 168.839999 97.719999) (width 1) (layer B.Cu) (net 1))
  (segment (start 176.53 100.33) (end 171.45 100.33) (width 1) (layer B.Cu) (net 1))
  (segment (start 180.34 96.52) (end 176.53 100.33) (width 1) (layer B.Cu) (net 1))
  (segment (start 167.64 76.2) (end 162.56 76.2) (width 1) (layer B.Cu) (net 1))
  (segment (start 158.75 87.63) (end 158.75 78.74) (width 1) (layer B.Cu) (net 1))
  (segment (start 167.64 96.52) (end 158.75 87.63) (width 1) (layer B.Cu) (net 1))
  (segment (start 159.821998 78.74) (end 158.75 78.74) (width 1) (layer F.Cu) (net 1))
  (segment (start 161.671999 76.889999) (end 159.821998 78.74) (width 1) (layer F.Cu) (net 1))
  (segment (start 161.870001 76.889999) (end 161.671999 76.889999) (width 1) (layer F.Cu) (net 1))
  (segment (start 162.56 76.2) (end 161.870001 76.889999) (width 1) (layer F.Cu) (net 1))
  (segment (start 187.96 83.82) (end 189.23 83.82) (width 1) (layer B.Cu) (net 1))
  (segment (start 180.34 91.44) (end 187.96 83.82) (width 1) (layer B.Cu) (net 1))
  (segment (start 180.34 96.52) (end 187.96 104.14) (width 1) (layer B.Cu) (net 1))
  (segment (start 180.34 111.76) (end 173.99 111.76) (width 1) (layer F.Cu) (net 2))
  (segment (start 163.762081 111.76) (end 162.56 111.76) (width 1) (layer F.Cu) (net 2))
  (segment (start 165.962082 109.559999) (end 163.762081 111.76) (width 1) (layer F.Cu) (net 2))
  (segment (start 171.789999 109.559999) (end 165.962082 109.559999) (width 1) (layer F.Cu) (net 2))
  (segment (start 173.99 111.76) (end 171.789999 109.559999) (width 1) (layer F.Cu) (net 2))
  (segment (start 182.84 111.76) (end 187.96 106.64) (width 1) (layer F.Cu) (net 2))
  (segment (start 180.34 111.76) (end 182.84 111.76) (width 1) (layer F.Cu) (net 2))
  (segment (start 188.380001 87.209999) (end 189.23 86.36) (width 1) (layer F.Cu) (net 2))
  (segment (start 184.089999 91.500001) (end 188.380001 87.209999) (width 1) (layer F.Cu) (net 2))
  (segment (start 184.089999 103.901369) (end 184.089999 91.500001) (width 1) (layer F.Cu) (net 2))
  (segment (start 186.82863 106.64) (end 184.089999 103.901369) (width 1) (layer F.Cu) (net 2))
  (segment (start 187.96 106.64) (end 186.82863 106.64) (width 1) (layer F.Cu) (net 2))
  (segment (start 188.380001 79.589999) (end 189.23 78.74) (width 1) (layer F.Cu) (net 2))
  (segment (start 187.379999 80.590001) (end 188.380001 79.589999) (width 1) (layer F.Cu) (net 2))
  (segment (start 188.027919 86.36) (end 187.379999 85.71208) (width 1) (layer F.Cu) (net 2))
  (segment (start 187.379999 85.71208) (end 187.379999 80.590001) (width 1) (layer F.Cu) (net 2))
  (segment (start 189.23 86.36) (end 188.027919 86.36) (width 1) (layer F.Cu) (net 2))
  (segment (start 180.34 76.2) (end 173.99 76.2) (width 1) (layer F.Cu) (net 3))
  (segment (start 172.790001 77.399999) (end 173.99 76.2) (width 1) (layer F.Cu) (net 3))
  (segment (start 165.439999 84.750001) (end 172.790001 77.399999) (width 1) (layer F.Cu) (net 3))
  (segment (start 165.439999 93.678003) (end 165.439999 84.750001) (width 1) (layer F.Cu) (net 3))
  (segment (start 158.75 100.368002) (end 165.439999 93.678003) (width 1) (layer F.Cu) (net 3))
  (segment (start 158.75 109.22) (end 158.75 100.368002) (width 1) (layer F.Cu) (net 3))
  (segment (start 189.23 76.2) (end 180.34 76.2) (width 1) (layer F.Cu) (net 3))
  (segment (start 165.1 109.22) (end 162.56 109.22) (width 1) (layer B.Cu) (net 4))
  (segment (start 167.64 111.76) (end 165.1 109.22) (width 1) (layer B.Cu) (net 4))
  (segment (start 168.839999 92.639999) (end 167.64 91.44) (width 1) (layer F.Cu) (net 5))
  (segment (start 169.840001 93.640001) (end 168.839999 92.639999) (width 1) (layer F.Cu) (net 5))
  (segment (start 169.840001 97.576001) (end 169.840001 93.640001) (width 1) (layer F.Cu) (net 5))
  (segment (start 160.709999 106.706003) (end 169.840001 97.576001) (width 1) (layer F.Cu) (net 5))
  (segment (start 160.709999 111.002082) (end 160.709999 106.706003) (width 1) (layer F.Cu) (net 5))
  (segment (start 159.952081 111.76) (end 160.709999 111.002082) (width 1) (layer F.Cu) (net 5))
  (segment (start 158.75 111.76) (end 159.952081 111.76) (width 1) (layer F.Cu) (net 5))
  (segment (start 163.762081 78.74) (end 162.56 78.74) (width 1) (layer B.Cu) (net 6))
  (segment (start 164.546002 78.74) (end 163.762081 78.74) (width 1) (layer B.Cu) (net 6))
  (segment (start 176.190001 90.383999) (end 164.546002 78.74) (width 1) (layer B.Cu) (net 6))
  (segment (start 176.190001 94.319999) (end 176.190001 90.383999) (width 1) (layer B.Cu) (net 6))
  (segment (start 173.99 96.52) (end 176.190001 94.319999) (width 1) (layer B.Cu) (net 6))
  (segment (start 160.709999 76.309999) (end 160.6 76.2) (width 1) (layer B.Cu) (net 7))
  (segment (start 160.709999 79.628001) (end 160.709999 76.309999) (width 1) (layer B.Cu) (net 7))
  (segment (start 171.321999 90.240001) (end 160.709999 79.628001) (width 1) (layer B.Cu) (net 7))
  (segment (start 160.6 76.2) (end 158.75 76.2) (width 1) (layer B.Cu) (net 7))
  (segment (start 172.790001 90.240001) (end 171.321999 90.240001) (width 1) (layer B.Cu) (net 7))
  (segment (start 173.99 91.44) (end 172.790001 90.240001) (width 1) (layer B.Cu) (net 7))

)
