EESchema Schematic File Version 4
EELAYER 30 0
EELAYER END
$Descr USLetter 11000 8500
encoding utf-8
Sheet 1 1
Title "Sensor Board 1"
Date ""
Rev ""
Comp "Project Springtime"
Comment1 "www.project-springtime.org"
Comment2 ""
Comment3 ""
Comment4 ""
$EndDescr
$Comp
L power:VCC #PWR0101
U 1 1 5D9BBCC7
P 3000 1500
F 0 "#PWR0101" H 3000 1350 50  0001 C CNN
F 1 "VCC" H 3017 1673 50  0000 C CNN
F 2 "" H 3000 1500 50  0001 C CNN
F 3 "" H 3000 1500 50  0001 C CNN
	1    3000 1500
	1    0    0    -1  
$EndComp
$Comp
L power:GND #PWR0102
U 1 1 5D9BC0C4
P 3600 4000
F 0 "#PWR0102" H 3600 3750 50  0001 C CNN
F 1 "GND" H 3605 3827 50  0000 C CNN
F 2 "" H 3600 4000 50  0001 C CNN
F 3 "" H 3600 4000 50  0001 C CNN
	1    3600 4000
	1    0    0    -1  
$EndComp
$Comp
L Device:R R1
U 1 1 5D9BC880
P 3000 2150
F 0 "R1" H 3070 2196 50  0000 L CNN
F 1 "R" H 3070 2105 50  0000 L CNN
F 2 "Resistor_THT:R_Axial_DIN0411_L9.9mm_D3.6mm_P15.24mm_Horizontal" V 2930 2150 50  0001 C CNN
F 3 "~" H 3000 2150 50  0001 C CNN
	1    3000 2150
	1    0    0    -1  
$EndComp
$Comp
L Device:R R3
U 1 1 5D9BD0B2
P 3600 2150
F 0 "R3" H 3670 2196 50  0000 L CNN
F 1 "R" H 3670 2105 50  0000 L CNN
F 2 "Resistor_THT:R_Axial_DIN0411_L9.9mm_D3.6mm_P15.24mm_Horizontal" V 3530 2150 50  0001 C CNN
F 3 "~" H 3600 2150 50  0001 C CNN
	1    3600 2150
	1    0    0    -1  
$EndComp
$Comp
L Device:R R5
U 1 1 5D9BD2FB
P 4150 2150
F 0 "R5" H 4220 2196 50  0000 L CNN
F 1 "R" H 4220 2105 50  0000 L CNN
F 2 "Resistor_THT:R_Axial_DIN0411_L9.9mm_D3.6mm_P15.24mm_Horizontal" V 4080 2150 50  0001 C CNN
F 3 "~" H 4150 2150 50  0001 C CNN
	1    4150 2150
	1    0    0    -1  
$EndComp
$Comp
L Device:R R2
U 1 1 5D9BD586
P 3000 3400
F 0 "R2" H 3070 3446 50  0000 L CNN
F 1 "R" H 3070 3355 50  0000 L CNN
F 2 "Resistor_THT:R_Axial_DIN0411_L9.9mm_D3.6mm_P15.24mm_Horizontal" V 2930 3400 50  0001 C CNN
F 3 "~" H 3000 3400 50  0001 C CNN
	1    3000 3400
	1    0    0    -1  
$EndComp
$Comp
L Device:R R6
U 1 1 5D9BDCB9
P 4150 3400
F 0 "R6" H 4220 3446 50  0000 L CNN
F 1 "R" H 4220 3355 50  0000 L CNN
F 2 "Resistor_THT:R_Axial_DIN0411_L9.9mm_D3.6mm_P15.24mm_Horizontal" V 4080 3400 50  0001 C CNN
F 3 "~" H 4150 3400 50  0001 C CNN
	1    4150 3400
	1    0    0    -1  
$EndComp
Wire Wire Line
	3600 3550 3600 4000
$Comp
L power:GND #PWR0103
U 1 1 5D9C3B12
P 4150 4000
F 0 "#PWR0103" H 4150 3750 50  0001 C CNN
F 1 "GND" H 4155 3827 50  0000 C CNN
F 2 "" H 4150 4000 50  0001 C CNN
F 3 "" H 4150 4000 50  0001 C CNN
	1    4150 4000
	1    0    0    -1  
$EndComp
$Comp
L power:GND #PWR0104
U 1 1 5D9C3DA7
P 3000 4000
F 0 "#PWR0104" H 3000 3750 50  0001 C CNN
F 1 "GND" H 3005 3827 50  0000 C CNN
F 2 "" H 3000 4000 50  0001 C CNN
F 3 "" H 3000 4000 50  0001 C CNN
	1    3000 4000
	1    0    0    -1  
$EndComp
$Comp
L power:GND #PWR0105
U 1 1 5D9C420F
P 4700 4000
F 0 "#PWR0105" H 4700 3750 50  0001 C CNN
F 1 "GND" H 4705 3827 50  0000 C CNN
F 2 "" H 4700 4000 50  0001 C CNN
F 3 "" H 4700 4000 50  0001 C CNN
	1    4700 4000
	1    0    0    -1  
$EndComp
$Comp
L Device:C C1
U 1 1 5D9C4614
P 4700 3400
F 0 "C1" H 4815 3446 50  0000 L CNN
F 1 "C" H 4815 3355 50  0000 L CNN
F 2 "Capacitor_THT:CP_Radial_Tantal_D9.0mm_P2.50mm" H 4738 3250 50  0001 C CNN
F 3 "~" H 4700 3400 50  0001 C CNN
	1    4700 3400
	1    0    0    -1  
$EndComp
Wire Wire Line
	3000 3250 3000 2800
Wire Wire Line
	4150 2300 4150 2800
Wire Wire Line
	4700 3250 4700 2800
Wire Wire Line
	4700 2800 4150 2800
Connection ~ 4150 2800
Wire Wire Line
	4150 2800 4150 3250
Wire Wire Line
	4150 2800 3600 2800
Connection ~ 3000 2800
Wire Wire Line
	3000 2800 3000 2300
$Comp
L Connector:Conn_01x02_Male J3
U 1 1 5D9C7F22
P 2800 1700
F 0 "J3" H 2908 1881 50  0000 C CNN
F 1 "Conn_01x02_Male" H 2908 1790 50  0000 C CNN
F 2 "Connector_PinHeader_2.54mm:PinHeader_1x02_P2.54mm_Vertical" H 2800 1700 50  0001 C CNN
F 3 "~" H 2800 1700 50  0001 C CNN
	1    2800 1700
	1    0    0    -1  
$EndComp
$Comp
L Connector:Conn_01x02_Male J2
U 1 1 5D9C934A
P 2800 3750
F 0 "J2" H 2908 3931 50  0000 C CNN
F 1 "Conn_01x02_Male" H 2908 3840 50  0000 C CNN
F 2 "Connector_PinHeader_2.54mm:PinHeader_1x02_P2.54mm_Vertical" H 2800 3750 50  0001 C CNN
F 3 "~" H 2800 3750 50  0001 C CNN
	1    2800 3750
	1    0    0    -1  
$EndComp
$Comp
L Connector:Conn_01x02_Male J5
U 1 1 5D9C988A
P 3400 2500
F 0 "J5" H 3508 2681 50  0000 C CNN
F 1 "Conn_01x02_Male" H 3508 2590 50  0000 C CNN
F 2 "Connector_PinHeader_2.54mm:PinHeader_1x02_P2.54mm_Vertical" H 3400 2500 50  0001 C CNN
F 3 "~" H 3400 2500 50  0001 C CNN
	1    3400 2500
	1    0    0    -1  
$EndComp
$Comp
L Connector:Conn_01x02_Male J4
U 1 1 5D9C9D13
P 3400 3000
F 0 "J4" H 3508 3181 50  0000 C CNN
F 1 "Conn_01x02_Male" H 3508 3090 50  0000 C CNN
F 2 "Connector_PinHeader_2.54mm:PinHeader_1x02_P2.54mm_Vertical" H 3400 3000 50  0001 C CNN
F 3 "~" H 3400 3000 50  0001 C CNN
	1    3400 3000
	1    0    0    -1  
$EndComp
$Comp
L Device:R R4
U 1 1 5D9BD854
P 3600 3400
F 0 "R4" H 3670 3446 50  0000 L CNN
F 1 "R" H 3670 3355 50  0000 L CNN
F 2 "Resistor_THT:R_Axial_DIN0411_L9.9mm_D3.6mm_P15.24mm_Horizontal" V 3530 3400 50  0001 C CNN
F 3 "~" H 3600 3400 50  0001 C CNN
	1    3600 3400
	1    0    0    -1  
$EndComp
$Comp
L power:VCC #PWR0106
U 1 1 5D9F616C
P 3600 1500
F 0 "#PWR0106" H 3600 1350 50  0001 C CNN
F 1 "VCC" H 3617 1673 50  0000 C CNN
F 2 "" H 3600 1500 50  0001 C CNN
F 3 "" H 3600 1500 50  0001 C CNN
	1    3600 1500
	1    0    0    -1  
$EndComp
$Comp
L power:VCC #PWR0107
U 1 1 5D9F662E
P 4150 1500
F 0 "#PWR0107" H 4150 1350 50  0001 C CNN
F 1 "VCC" H 4167 1673 50  0000 C CNN
F 2 "" H 4150 1500 50  0001 C CNN
F 3 "" H 4150 1500 50  0001 C CNN
	1    4150 1500
	1    0    0    -1  
$EndComp
Wire Wire Line
	4700 3550 4700 4000
Wire Wire Line
	4150 3550 4150 4000
Wire Wire Line
	3000 3850 3000 4000
Wire Wire Line
	3000 3550 3000 3750
Wire Wire Line
	3600 3100 3600 3250
Wire Wire Line
	3600 3000 3600 2800
Connection ~ 3600 2800
Wire Wire Line
	3600 2800 3000 2800
Wire Wire Line
	3600 2800 3600 2600
Wire Wire Line
	3600 2500 3600 2300
Wire Wire Line
	3600 2000 3600 1500
Wire Wire Line
	4150 2000 4150 1500
Wire Wire Line
	3000 2000 3000 1800
Wire Wire Line
	3000 1700 3000 1500
$Comp
L Connector:Conn_01x02_Male J1
U 1 1 5D9FE7C6
P 1750 1700
F 0 "J1" H 1858 1881 50  0000 C CNN
F 1 "Conn_01x02_Male" H 1858 1790 50  0000 C CNN
F 2 "Connector_PinHeader_2.54mm:PinHeader_1x02_P2.54mm_Vertical" H 1750 1700 50  0001 C CNN
F 3 "~" H 1750 1700 50  0001 C CNN
	1    1750 1700
	1    0    0    -1  
$EndComp
$Comp
L power:VCC #PWR02
U 1 1 5D9FF1E0
P 2100 1450
F 0 "#PWR02" H 2100 1300 50  0001 C CNN
F 1 "VCC" H 2117 1623 50  0000 C CNN
F 2 "" H 2100 1450 50  0001 C CNN
F 3 "" H 2100 1450 50  0001 C CNN
	1    2100 1450
	1    0    0    -1  
$EndComp
Wire Wire Line
	1950 1700 2100 1700
Wire Wire Line
	2100 1700 2100 1450
$Comp
L Connector:Conn_01x02_Male J6
U 1 1 5DA0149E
P 5550 2800
F 0 "J6" H 5522 2774 50  0000 R CNN
F 1 "Conn_01x02_Male" H 5522 2683 50  0000 R CNN
F 2 "Connector_PinHeader_2.54mm:PinHeader_1x02_P2.54mm_Vertical" H 5550 2800 50  0001 C CNN
F 3 "~" H 5550 2800 50  0001 C CNN
	1    5550 2800
	-1   0    0    -1  
$EndComp
Wire Wire Line
	4700 2800 5350 2800
Connection ~ 4700 2800
$Comp
L power:GND #PWR0108
U 1 1 5DA02798
P 5350 4000
F 0 "#PWR0108" H 5350 3750 50  0001 C CNN
F 1 "GND" H 5355 3827 50  0000 C CNN
F 2 "" H 5350 4000 50  0001 C CNN
F 3 "" H 5350 4000 50  0001 C CNN
	1    5350 4000
	1    0    0    -1  
$EndComp
Wire Wire Line
	5350 2900 5350 4000
$Comp
L power:PWR_FLAG #FLG0101
U 1 1 5DA10914
P 2300 1800
F 0 "#FLG0101" H 2300 1875 50  0001 C CNN
F 1 "PWR_FLAG" H 2300 1973 50  0000 C CNN
F 2 "" H 2300 1800 50  0001 C CNN
F 3 "~" H 2300 1800 50  0001 C CNN
	1    2300 1800
	1    0    0    1   
$EndComp
$Comp
L power:GND #PWR0109
U 1 1 5DA242F8
P 2100 2100
F 0 "#PWR0109" H 2100 1850 50  0001 C CNN
F 1 "GND" H 2105 1927 50  0000 C CNN
F 2 "" H 2100 2100 50  0001 C CNN
F 3 "" H 2100 2100 50  0001 C CNN
	1    2100 2100
	1    0    0    -1  
$EndComp
Wire Wire Line
	1950 1800 2100 1800
Wire Wire Line
	2100 2100 2100 1800
Connection ~ 2100 1800
Wire Wire Line
	2100 1800 2300 1800
$Comp
L power:PWR_FLAG #FLG0102
U 1 1 5DA29D80
P 2300 1700
F 0 "#FLG0102" H 2300 1775 50  0001 C CNN
F 1 "PWR_FLAG" H 2300 1873 50  0000 C CNN
F 2 "" H 2300 1700 50  0001 C CNN
F 3 "~" H 2300 1700 50  0001 C CNN
	1    2300 1700
	1    0    0    -1  
$EndComp
Wire Wire Line
	2100 1700 2300 1700
Connection ~ 2100 1700
$EndSCHEMATC
